<svg width="32" height="32" viewBox="0 0 32 32" fill="none" xmlns="http://www.w3.org/2000/svg">
<path d="M16 28C22.6274 28 28 22.6274 28 16C28 9.37258 22.6274 4 16 4C9.37258 4 4 9.37258 4 16C4 22.6274 9.37258 28 16 28Z" fill="#FCC11A"/>
<path d="M10.9993 11.9997C12.288 11.9997 13.3327 10.955 13.3327 9.66634C13.3327 8.37768 12.288 7.33301 10.9993 7.33301C9.71068 7.33301 8.66602 8.37768 8.66602 9.66634C8.66602 10.955 9.71068 11.9997 10.9993 11.9997Z" fill="#FFA722"/>
<path d="M17.3301 16.6665C18.4346 16.6665 19.3301 15.7711 19.3301 14.6665C19.3301 13.5619 18.4346 12.6665 17.3301 12.6665C16.2255 12.6665 15.3301 13.5619 15.3301 14.6665C15.3301 15.7711 16.2255 16.6665 17.3301 16.6665Z" fill="#FFA722"/>
<path d="M18.3275 24.6662C19.6161 24.6662 20.6608 23.6215 20.6608 22.3328C20.6608 21.0442 19.6161 19.9995 18.3275 19.9995C17.0388 19.9995 15.9941 21.0442 15.9941 22.3328C15.9941 23.6215 17.0388 24.6662 18.3275 24.6662Z" fill="#FFA722"/>
<path d="M17.9954 9.33317C18.7318 9.33317 19.3288 8.73622 19.3288 7.99984C19.3288 7.26346 18.7318 6.6665 17.9954 6.6665C17.2591 6.6665 16.6621 7.26346 16.6621 7.99984C16.6621 8.73622 17.2591 9.33317 17.9954 9.33317Z" fill="#FFA722"/>
<path d="M5.99674 16.6668C6.36493 16.6668 6.66341 16.3684 6.66341 16.0002C6.66341 15.632 6.36493 15.3335 5.99674 15.3335C5.62855 15.3335 5.33008 15.632 5.33008 16.0002C5.33008 16.3684 5.62855 16.6668 5.99674 16.6668Z" fill="#FFA722"/>
<path d="M23.9967 10.6668C24.3649 10.6668 24.6634 10.3684 24.6634 10.0002C24.6634 9.63197 24.3649 9.3335 23.9967 9.3335C23.6286 9.3335 23.3301 9.63197 23.3301 10.0002C23.3301 10.3684 23.6286 10.6668 23.9967 10.6668Z" fill="#FFA722"/>
<path d="M13.9967 25.3333C14.3649 25.3333 14.6634 25.0349 14.6634 24.6667C14.6634 24.2985 14.3649 24 13.9967 24C13.6286 24 13.3301 24.2985 13.3301 24.6667C13.3301 25.0349 13.6286 25.3333 13.9967 25.3333Z" fill="#FFA722"/>
<path d="M25.3314 18.0002C26.0678 18.0002 26.6647 17.4032 26.6647 16.6668C26.6647 15.9304 26.0678 15.3335 25.3314 15.3335C24.595 15.3335 23.998 15.9304 23.998 16.6668C23.998 17.4032 24.595 18.0002 25.3314 18.0002Z" fill="#FFA722"/>
<path d="M10.6634 20.6667C11.3998 20.6667 11.9967 20.0697 11.9967 19.3333C11.9967 18.597 11.3998 18 10.6634 18C9.92703 18 9.33008 18.597 9.33008 19.3333C9.33008 20.0697 9.92703 20.6667 10.6634 20.6667Z" fill="#FFA722"/>
</svg>
