<svg width="5" height="9" viewBox="0 0 5 9" fill="none" xmlns="http://www.w3.org/2000/svg">
<path d="M0.928153 8.33337C0.775846 8.33337 0.623465 8.27234 0.507394 8.15028C0.274879 7.90616 0.274879 7.51067 0.507394 7.26655L3.06357 4.58362L0.507394 1.9002C0.274879 1.65607 0.274879 1.26059 0.507394 1.01647C0.739909 0.772343 1.11658 0.772343 1.3491 1.01647L4.32529 4.14126C4.5578 4.38539 4.5578 4.78087 4.32529 5.025L1.3491 8.14979C1.23284 8.27283 1.0805 8.33337 0.928153 8.33337Z" fill="#333333"/>
</svg>
